^C:\USERS\ACER ASPIRE E5-571G\DOCUMENTS\VISUAL STUDIO 2015\PROJECTS\КРЕДИТ\ПРОЕКТ16\SOURCE.CPP
C:\USERS\ACER ASPIRE E5-571G\DOCUMENTS\VISUAL STUDIO 2015\PROJECTS\кредит\Проект16\DEBUG\VC140.PDB
C:\USERS\ACER ASPIRE E5-571G\DOCUMENTS\VISUAL STUDIO 2015\PROJECTS\кредит\Проект16\DEBUG\VC140.IDB
C:\USERS\ACER ASPIRE E5-571G\DOCUMENTS\VISUAL STUDIO 2015\PROJECTS\кредит\Проект16\DEBUG\SOURCE.OBJ
